{
  "data": [
    [3, "A", "A", "A", "A"],
    [4, "B", "B", "B", "B"]
  ],
  "page": {
    "currentPage": 2,
    "rowsPerPage": 20,
    "totalRows":   300,
    "totalPages":  15
  }
}
